{
    "response": [
        {
            "datetime": 1618874919,
            "filename": "lineage_laurel_sprout-ota-eng.arru.zip",
            "id": "2ae205ca59160fa3250b4d413f5c3035",
            "romtype": "UNOFFICIAL",
            "size": 907752934,
            "url": "https://gitlab.com/MasterAwesome/laurel_sprout-builds/-/raw/master/lineage_laurel_sprout-ota-eng.arru.zip",
            "version": "18.1"
        }
    ]
}